3 Simulation example – Supplementary material
…
From this data generation mechanism, we simulated the target population, which consists of one million observations.

set.seed(2025) #set random number for reproducibility
#Simulate the population
ex3_population <- data.sim_ex3(n = 1e6)
#View the data frame
ex3_population

# A tibble: 1,000,000 × 4
         W       D       P      V
     <dbl>   <dbl>   <dbl>  <dbl>
 1  0.621   2.01    1.14    1.85 
 2  0.0356  1.24    1.62    0.875
 3  0.773   0.826  -0.716   1.06 
 4  1.27    0.978   0.241   1.05 
 5  0.371   0.0871 -0.0980 -0.384
 6 -0.163  -0.0222 -0.364   0.387
 7  0.397   0.672   0.821   0.867
 8 -0.0800 -0.801  -1.27   -0.553
 9 -0.345   0.282   1.40    0.280
10  0.702   0.306  -0.193   0.538
# ℹ 999,990 more rows
…
#Set random number for reproducibility
set.seed(2025)  
#Generate a vector of random numbers for reproducibility
ex3_random.seed <- sample(1:1e5, size = n_sims, replace = FALSE)

set.seed(ex3_random.seed[1])
#Sample one data set of 5,000 observations
ex3_sample.random <- 
  ex3_population %>% 
  slice_sample(n = 5e3) #take a simple random sample of size 5,000 

#View the data frame
ex3_sample.random

# A tibble: 5,000 × 4
          W      D       P      V
      <dbl>  <dbl>   <dbl>  <dbl>
 1  0.148    0.878  0.767   0.889
 2  0.820    1.45   0.348   1.21 
 3 -1.28    -2.24  -0.939  -2.46 
 4 -0.179   -0.226 -0.331  -0.352
 5 -0.131   -0.320 -0.189  -0.284
 6 -0.990   -1.88  -0.432  -1.78 
 7 -0.522   -1.16  -0.688  -1.53 
 8 -0.00594 -0.293  0.398  -0.335
 9 -0.146   -0.950  0.0766 -0.574
10 -0.991   -2.15  -1.50   -2.12 
# ℹ 4,990 more rows
…
    }  
#Compile matrix  
  coefs_ex3[k, 1] <- i #simulation ID
  coefs_ex3[k, 2] <- coef(fit)['W'] #point estimate
  coefs_ex3[k, 3] <- summary(fit)$coef['W','Std. Error'] #standard error
  coefs_ex3[k, 4:5] <- confint(fit, level = 0.95, type = 'Wald')['W', ] #confidence interval (Wald)
  coefs_ex3[k, 6] <- n_model[j] #sample size
  k = k + 1
  }
}
coefs_ex3 <- as_tibble(coefs_ex3)
#View the data frame
coefs_ex3

# A tibble: 3,000 × 7
   sim.id estimate      se CI_2.5 CI_97.5 model coverage
    <int>    <dbl>   <dbl>  <dbl>   <dbl> <chr> <lgl>   
 1      1    0.510 0.00892  0.493   0.528 mod.1 NA      
 2      1   -0.698 0.0230  -0.743  -0.653 mod.2 NA      
 3      1   -0.522 0.0224  -0.566  -0.478 mod.3 NA      
 4      2    0.488 0.00913  0.470   0.506 mod.1 NA      
 5      2   -0.710 0.0221  -0.753  -0.666 mod.2 NA      
 6      2   -0.555 0.0216  -0.597  -0.512 mod.3 NA      
 7      3    0.495 0.00903  0.478   0.513 mod.1 NA      
 8      3   -0.707 0.0220  -0.750  -0.664 mod.2 NA      
 9      3   -0.544 0.0216  -0.586  -0.502 mod.3 NA      
10      4    0.511 0.00910  0.494   0.529 mod.1 NA      
# ℹ 2,990 more rows

The coverage is defined by setting its value to 1 if the confidence interval overlaps the data-generating parameter for window shading (i.e., b_win = 0.5) and 0 otherwise.

#Calculate coverage
coefs_ex3 <-
  coefs_ex3 %>%
  mutate(coverage = case_when(CI_2.5 > b_win | CI_97.5 < b_win ~ 0,
                              CI_2.5 <= b_win & CI_97.5 >= b_win ~ 1,
                              .default = NA))
#View the data frame
coefs_ex3

# A tibble: 3,000 × 7
   sim.id estimate      se CI_2.5 CI_97.5 model coverage
    <int>    <dbl>   <dbl>  <dbl>   <dbl> <chr>    <dbl>
 1      1    0.510 0.00892  0.493   0.528 mod.1        1
 2      1   -0.698 0.0230  -0.743  -0.653 mod.2        0
 3      1   -0.522 0.0224  -0.566  -0.478 mod.3        0
 4      2    0.488 0.00913  0.470   0.506 mod.1        1
 5      2   -0.710 0.0221  -0.753  -0.666 mod.2        0
 6      2   -0.555 0.0216  -0.597  -0.512 mod.3        0
 7      3    0.495 0.00903  0.478   0.513 mod.1        1
 8      3   -0.707 0.0220  -0.750  -0.664 mod.2        0
 9      3   -0.544 0.0216  -0.586  -0.502 mod.3        0
10      4    0.511 0.00910  0.494   0.529 mod.1        1
# ℹ 2,990 more rows
…
