4 Simulation example – Supplementary material
…
From this data generation mechanism, we simulated the target population, which consists of one million observations.

set.seed(2025) #set random number for reproducibility
#Simulate the population
ex4_population <- data.sim_ex4(n = 1e6)
#Set relative humidity reference category to 'high'
ex4_population$H <- relevel(ex4_population$H, ref = 'high')
#Set microbial aerosol reference category to 'low'
ex4_population$M <- relevel(ex4_population$M, ref = 'low')
#Set absence reference category to 'no'
ex4_population$A <- relevel(ex4_population$A, ref = 'no')
#View the data frame
ex4_population

# A tibble: 1,000,000 × 4
   H     A     M            R
   <fct> <fct> <fct>    <dbl>
 1 low   yes   low    5.95   
 2 high  yes   high   9.13   
 3 high  yes   high  -0.00136
 4 high  no    high  -3.59   
 5 low   no    low   -3.32   
 6 low   yes   low    0.832  
 7 high  yes   high   2.46   
 8 low   no    low   -4.59   
 9 high  yes   high   6.80   
10 low   no    low   -4.98   
# ℹ 999,990 more rows
…
#Set random number for reproducibility
set.seed(2025)  
#Generate a vector of random numbers for reproducibility
ex4_random.seed <- sample(1:1e5, size = n_sims, replace = FALSE)

set.seed(ex4_random.seed[1])
#Sample one data set of 5,000 observations
ex4_sample.random <- 
  ex4_population %>% 
  slice_sample(n = 5e3) #take a simple random sample of size 5,000 

#View the data frame
ex4_sample.random

# A tibble: 5,000 × 4
   H     A     M          R
   <fct> <fct> <fct>  <dbl>
 1 high  yes   high   5.94 
 2 low   yes   low    0.799
 3 low   no    low   -2.45 
 4 high  yes   high   2.25 
 5 low   no    low   -1.24 
 6 low   no    low   -2.90 
 7 high  no    high  -0.279
 8 low   no    low   -2.21 
 9 high  no    high  -2.38 
10 low   no    low   -4.50 
# ℹ 4,990 more rows
…
    }  
#Compile matrix  
  coefs_ex4[k, 1] <- i #simulation ID
  coefs_ex4[k, 2] <- coef(fit)['Mhigh'] #point estimate
  coefs_ex4[k, 3] <- summary(fit)$coef['Mhigh','Std. Error'] #standard error
  coefs_ex4[k, 4:5] <- confint(fit, level = 0.95, type = 'Wald')['Mhigh', ] #confidence interval (Wald)
  coefs_ex4[k, 6] <- n_model[j] #sample size
  k = k + 1
  }
}
coefs_ex4 <- as_tibble(coefs_ex4)
#View the data frame
coefs_ex4

# A tibble: 2,000 × 7
   sim.id estimate     se CI_2.5 CI_97.5 model coverage
    <int>    <dbl>  <dbl>  <dbl>   <dbl> <chr> <lgl>   
 1      1     1.37 0.0836   1.21    1.54 mod.1 NA      
 2      1     2.88 0.119    2.65    3.11 mod.2 NA      
 3      2     1.30 0.0874   1.13    1.47 mod.1 NA      
 4      2     2.89 0.122    2.65    3.13 mod.2 NA      
 5      3     1.38 0.0881   1.21    1.56 mod.1 NA      
 6      3     3.11 0.123    2.87    3.35 mod.2 NA      
 7      4     1.47 0.0844   1.31    1.64 mod.1 NA      
 8      4     3.12 0.118    2.89    3.35 mod.2 NA      
 9      5     1.33 0.0841   1.17    1.50 mod.1 NA      
10      5     2.99 0.118    2.76    3.22 mod.2 NA      
# ℹ 1,990 more rows

The coverage is defined by setting its value to 1 if the confidence interval overlaps the data-generating parameter for microbial aerosol (i.e., b_micr.resp = 3) and 0 otherwise.

#Calculate coverage
coefs_ex4 <-
  coefs_ex4 %>%
  mutate(coverage = case_when(CI_2.5 > b_micr.resp | CI_97.5 < b_micr.resp ~ 0,
                              CI_2.5 <= b_micr.resp & CI_97.5 >= b_micr.resp ~ 1,
                              .default = NA))
#View the data frame
coefs_ex4

# A tibble: 2,000 × 7
   sim.id estimate     se CI_2.5 CI_97.5 model coverage
    <int>    <dbl>  <dbl>  <dbl>   <dbl> <chr>    <dbl>
 1      1     1.37 0.0836   1.21    1.54 mod.1        0
 2      1     2.88 0.119    2.65    3.11 mod.2        1
 3      2     1.30 0.0874   1.13    1.47 mod.1        0
 4      2     2.89 0.122    2.65    3.13 mod.2        1
 5      3     1.38 0.0881   1.21    1.56 mod.1        0
 6      3     3.11 0.123    2.87    3.35 mod.2        1
 7      4     1.47 0.0844   1.31    1.64 mod.1        0
 8      4     3.12 0.118    2.89    3.35 mod.2        1
 9      5     1.33 0.0841   1.17    1.50 mod.1        0
10      5     2.99 0.118    2.76    3.22 mod.2        1
# ℹ 1,990 more rows
…
