5 Simulation example – Supplementary material
…
From this data generation mechanism, we simulated the target population, which consists of one million observations.

set.seed(2025) #set random number for reproducibility
#Simulate the population
ex5_population <- data.sim_ex5(n = 1e6)
#Set biological sex reference category to 'male'
ex5_population$S <- relevel(ex5_population$S, ref = 'male')
#View the data frame
ex5_population

# A tibble: 1,000,000 × 5
       A S          N     C     P
   <int> <fct>  <dbl> <dbl> <int>
 1    30 male    46.2  53.3     1
 2    29 female  47.5  47.4     1
 3    53 male    44.3  57.7     0
 4    43 female  40.3  52.4     0
 5    18 male    37.4  39.9     1
 6    40 female  36.2  48.1     0
 7    27 female  46.2  55.9     1
 8    30 female  48.2  52.7     1
 9    29 female  47.6  51.3     1
10    21 female  36.2  42.8     1
# ℹ 999,990 more rows
…
    }  
#Compile matrix  
  coefs_ex5[k, 1] <- i #simulation ID
  coefs_ex5[k, 2] <- coef(fit)['Sfemale'] #point estimate
  coefs_ex5[k, 3] <- summary(fit)$coef['Sfemale','Std. Error'] #standard error
  coefs_ex5[k, 4:5] <- confint(fit, level = 0.95, type = 'Wald')['Sfemale', ] #confidence interval (Wald)
  coefs_ex5[k, 6] <- n_model[j] #sample size
  k = k + 1
  }
}
coefs_ex5 <- as_tibble(coefs_ex5)
#View the data frame
coefs_ex5

# A tibble: 3,000 × 7
   sim.id estimate    se CI_2.5 CI_97.5 model coverage
    <int>    <dbl> <dbl>  <dbl>   <dbl> <chr> <lgl>   
 1      1  -0.0715 0.134 -0.334   0.191 mod.1 NA      
 2      1  -1.00   0.123 -1.24   -0.759 mod.2 NA      
 3      1  -0.0119 0.107 -0.222   0.198 mod.3 NA      
 4      2   0.0547 0.136 -0.211   0.321 mod.1 NA      
 5      2  -0.973  0.125 -1.22   -0.727 mod.2 NA      
 6      2   0.0312 0.108 -0.180   0.243 mod.3 NA      
 7      3  -0.0387 0.137 -0.306   0.229 mod.1 NA      
 8      3  -1.08   0.125 -1.32   -0.831 mod.2 NA      
 9      3   0.0386 0.108 -0.173   0.250 mod.3 NA      
10      4  -0.0152 0.136 -0.282   0.252 mod.1 NA      
# ℹ 2,990 more rows

The coverage is defined by setting its value to 1 if the confidence interval overlaps the data-generating parameter for sex (i.e., b_sex.conf = -1) and 0 otherwise.

#Calculate coverage
coefs_ex5 <-
  coefs_ex5 %>%
  mutate(coverage = case_when(CI_2.5 > b_sex.conf[2] | CI_97.5 < b_sex.conf[2] ~ 0,
                              CI_2.5 <= b_sex.conf[2] & CI_97.5 >= b_sex.conf[2] ~ 1,
                              .default = NA))
#View the data frame
coefs_ex5

# A tibble: 3,000 × 7
   sim.id estimate    se CI_2.5 CI_97.5 model coverage
    <int>    <dbl> <dbl>  <dbl>   <dbl> <chr>    <dbl>
 1      1  -0.0715 0.134 -0.334   0.191 mod.1        0
 2      1  -1.00   0.123 -1.24   -0.759 mod.2        1
 3      1  -0.0119 0.107 -0.222   0.198 mod.3        0
 4      2   0.0547 0.136 -0.211   0.321 mod.1        0
 5      2  -0.973  0.125 -1.22   -0.727 mod.2        1
 6      2   0.0312 0.108 -0.180   0.243 mod.3        0
 7      3  -0.0387 0.137 -0.306   0.229 mod.1        0
 8      3  -1.08   0.125 -1.32   -0.831 mod.2        1
 9      3   0.0386 0.108 -0.173   0.250 mod.3        0
10      4  -0.0152 0.136 -0.282   0.252 mod.1        0
# ℹ 2,990 more rows
…
